%YAML 1.1
%TAG !u! tag:unity3d.com,2011:
--- !u!29 &1
OcclusionCullingSettings:
  m_ObjectHideFlags: 0
  serializedVersion: 2
  m_OcclusionBakeSettings:
    smallestOccluder: 5
    smallestHole: 0.25
    backfaceThreshold: 100
  m_SceneGUID: 00000000000000000000000000000000
  m_OcclusionCullingData: {fileID: 0}
--- !u!104 &2
RenderSettings:
  m_ObjectHideFlags: 0
  serializedVersion: 9
  m_Fog: 0
  m_FogColor: {r: 0.5, g: 0.5, b: 0.5, a: 1}
  m_FogMode: 3
  m_FogDensity: 0.01
  m_LinearFogStart: 0
  m_LinearFogEnd: 300
  m_AmbientSkyColor: {r: 0.212, g: 0.227, b: 0.259, a: 1}
  m_AmbientEquatorColor: {r: 0.114, g: 0.125, b: 0.133, a: 1}
  m_AmbientGroundColor: {r: 0.047, g: 0.043, b: 0.035, a: 1}
  m_AmbientIntensity: 1
  m_AmbientMode: 0
  m_SubtractiveShadowColor: {r: 0.42, g: 0.478, b: 0.627, a: 1}
  m_SkyboxMaterial: {fileID: 10304, guid: 0000000000000000f000000000000000, type: 0}
  m_HaloStrength: 0.5
  m_FlareStrength: 1
  m_FlareFadeSpeed: 3
  m_HaloTexture: {fileID: 0}
  m_SpotCookie: {fileID: 10001, guid: 0000000000000000e000000000000000, type: 0}
  m_DefaultReflectionMode: 0
  m_DefaultReflectionResolution: 128
  m_ReflectionBounces: 1
  m_ReflectionIntensity: 1
  m_CustomReflection: {fileID: 0}
  m_Sun: {fileID: 0}
  m_IndirectSpecularColor: {r: 0.37312585, g: 0.38074517, b: 0.35872814, a: 1}
  m_UseRadianceAmbientProbe: 0
--- !u!157 &3
LightmapSettings:
  m_ObjectHideFlags: 0
  serializedVersion: 12
  m_GIWorkflowMode: 1
  m_GISettings:
    serializedVersion: 2
    m_BounceScale: 1
    m_IndirectOutputScale: 1
    m_AlbedoBoost: 1
    m_EnvironmentLightingMode: 0
    m_EnableBakedLightmaps: 1
    m_EnableRealtimeLightmaps: 0
  m_LightmapEditorSettings:
    serializedVersion: 12
    m_Resolution: 2
    m_BakeResolution: 40
    m_AtlasSize: 1024
    m_AO: 0
    m_AOMaxDistance: 1
    m_CompAOExponent: 1
    m_CompAOExponentDirect: 0
    m_ExtractAmbientOcclusion: 0
    m_Padding: 2
    m_LightmapParameters: {fileID: 0}
    m_LightmapsBakeMode: 1
    m_TextureCompression: 1
    m_FinalGather: 0
    m_FinalGatherFiltering: 1
    m_FinalGatherRayCount: 256
    m_ReflectionCompression: 2
    m_MixedBakeMode: 2
    m_BakeBackend: 1
    m_PVRSampling: 1
    m_PVRDirectSampleCount: 32
    m_PVRSampleCount: 500
    m_PVRBounces: 2
    m_PVREnvironmentSampleCount: 500
    m_PVREnvironmentReferencePointCount: 2048
    m_PVRFilteringMode: 2
    m_PVRDenoiserTypeDirect: 0
    m_PVRDenoiserTypeIndirect: 0
    m_PVRDenoiserTypeAO: 0
    m_PVRFilterTypeDirect: 0
    m_PVRFilterTypeIndirect: 0
    m_PVRFilterTypeAO: 0
    m_PVREnvironmentMIS: 0
    m_PVRCulling: 1
    m_PVRFilteringGaussRadiusDirect: 1
    m_PVRFilteringGaussRadiusIndirect: 5
    m_PVRFilteringGaussRadiusAO: 2
    m_PVRFilteringAtrousPositionSigmaDirect: 0.5
    m_PVRFilteringAtrousPositionSigmaIndirect: 2
    m_PVRFilteringAtrousPositionSigmaAO: 1
    m_ExportTrainingData: 0
    m_TrainingDataDestination: TrainingData
    m_LightProbeSampleCountMultiplier: 4
  m_LightingDataAsset: {fileID: 0}
  m_LightingSettings: {fileID: 0}
--- !u!196 &4
NavMeshSettings:
  serializedVersion: 2
  m_ObjectHideFlags: 0
  m_BuildSettings:
    serializedVersion: 2
    agentTypeID: 0
    agentRadius: 0.5
    agentHeight: 2
    agentSlope: 45
    agentClimb: 0.4
    ledgeDropHeight: 0
    maxJumpAcrossDistance: 0
    minRegionArea: 2
    manualCellSize: 0
    cellSize: 0.16666667
    manualTileSize: 0
    tileSize: 256
    accuratePlacement: 0
    maxJobWorkers: 0
    preserveTilesOutsideBounds: 0
    debug:
      m_Flags: 0
  m_NavMeshData: {fileID: 0}
--- !u!20 &963194227 stripped
Camera:
  m_CorrespondingSourceObject: {fileID: 6234200151932118243, guid: 0f88fe3eea565f84aa2c29c5eb29850c,
    type: 3}
  m_PrefabInstance: {fileID: 6234200152625678736}
  m_PrefabAsset: {fileID: 0}
--- !u!1001 &3217747591131057314
PrefabInstance:
  m_ObjectHideFlags: 0
  serializedVersion: 2
  m_Modification:
    m_TransformParent: {fileID: 0}
    m_Modifications:
    - target: {fileID: 153166663372382320, guid: c2b21470d895f774fbb960bc075f1d92,
        type: 3}
      propertyPath: m_Pivot.x
      value: 0
      objectReference: {fileID: 0}
    - target: {fileID: 153166663372382320, guid: c2b21470d895f774fbb960bc075f1d92,
        type: 3}
      propertyPath: m_Pivot.y
      value: 0
      objectReference: {fileID: 0}
    - target: {fileID: 153166663372382320, guid: c2b21470d895f774fbb960bc075f1d92,
        type: 3}
      propertyPath: m_RootOrder
      value: 2
      objectReference: {fileID: 0}
    - target: {fileID: 153166663372382320, guid: c2b21470d895f774fbb960bc075f1d92,
        type: 3}
      propertyPath: m_SizeDelta.x
      value: 0
      objectReference: {fileID: 0}
    - target: {fileID: 153166663372382320, guid: c2b21470d895f774fbb960bc075f1d92,
        type: 3}
      propertyPath: m_SizeDelta.y
      value: 0
      objectReference: {fileID: 0}
    - target: {fileID: 153166663372382320, guid: c2b21470d895f774fbb960bc075f1d92,
        type: 3}
      propertyPath: m_LocalPosition.x
      value: 0
      objectReference: {fileID: 0}
    - target: {fileID: 153166663372382320, guid: c2b21470d895f774fbb960bc075f1d92,
        type: 3}
      propertyPath: m_LocalPosition.y
      value: 0
      objectReference: {fileID: 0}
    - target: {fileID: 153166663372382320, guid: c2b21470d895f774fbb960bc075f1d92,
        type: 3}
      propertyPath: m_LocalPosition.z
      value: 0
      objectReference: {fileID: 0}
    - target: {fileID: 153166663372382320, guid: c2b21470d895f774fbb960bc075f1d92,
        type: 3}
      propertyPath: m_AnchoredPosition.x
      value: 0
      objectReference: {fileID: 0}
    - target: {fileID: 153166663372382320, guid: c2b21470d895f774fbb960bc075f1d92,
        type: 3}
      propertyPath: m_AnchoredPosition.y
      value: 0
      objectReference: {fileID: 0}
    - target: {fileID: 153166663372382320, guid: c2b21470d895f774fbb960bc075f1d92,
        type: 3}
      propertyPath: m_LocalEulerAnglesHint.x
      value: 0
      objectReference: {fileID: 0}
    - target: {fileID: 153166663372382320, guid: c2b21470d895f774fbb960bc075f1d92,
        type: 3}
      propertyPath: m_LocalEulerAnglesHint.y
      value: 0
      objectReference: {fileID: 0}
    - target: {fileID: 153166663372382320, guid: c2b21470d895f774fbb960bc075f1d92,
        type: 3}
      propertyPath: m_LocalEulerAnglesHint.z
      value: 0
      objectReference: {fileID: 0}
    - target: {fileID: 8422211319405384144, guid: c2b21470d895f774fbb960bc075f1d92,
        type: 3}
      propertyPath: m_Camera
      value: 
      objectReference: {fileID: 963194227}
    - target: {fileID: 8834932314986261730, guid: c2b21470d895f774fbb960bc075f1d92,
        type: 3}
      propertyPath: m_Name
      value: Canvas
      objectReference: {fileID: 0}
    m_RemovedComponents: []
  m_SourcePrefab: {fileID: 100100000, guid: c2b21470d895f774fbb960bc075f1d92, type: 3}
--- !u!224 &3217747591131057315 stripped
RectTransform:
  m_CorrespondingSourceObject: {fileID: 153166663372382320, guid: c2b21470d895f774fbb960bc075f1d92,
    type: 3}
  m_PrefabInstance: {fileID: 3217747591131057314}
  m_PrefabAsset: {fileID: 0}
--- !u!1001 &4805714019284203353
PrefabInstance:
  m_ObjectHideFlags: 0
  serializedVersion: 2
  m_Modification:
    m_TransformParent: {fileID: 0}
    m_Modifications:
    - target: {fileID: 4805714018815282952, guid: 7cd24369bff4b1d418d08ee6331ad2b6,
        type: 3}
      propertyPath: m_Name
      value: Init
      objectReference: {fileID: 0}
    - target: {fileID: 4805714018815282955, guid: 7cd24369bff4b1d418d08ee6331ad2b6,
        type: 3}
      propertyPath: m_RootOrder
      value: 0
      objectReference: {fileID: 0}
    - target: {fileID: 4805714018815282955, guid: 7cd24369bff4b1d418d08ee6331ad2b6,
        type: 3}
      propertyPath: m_LocalPosition.x
      value: 0
      objectReference: {fileID: 0}
    - target: {fileID: 4805714018815282955, guid: 7cd24369bff4b1d418d08ee6331ad2b6,
        type: 3}
      propertyPath: m_LocalPosition.y
      value: 0
      objectReference: {fileID: 0}
    - target: {fileID: 4805714018815282955, guid: 7cd24369bff4b1d418d08ee6331ad2b6,
        type: 3}
      propertyPath: m_LocalPosition.z
      value: 0
      objectReference: {fileID: 0}
    - target: {fileID: 4805714018815282955, guid: 7cd24369bff4b1d418d08ee6331ad2b6,
        type: 3}
      propertyPath: m_LocalRotation.w
      value: 1
      objectReference: {fileID: 0}
    - target: {fileID: 4805714018815282955, guid: 7cd24369bff4b1d418d08ee6331ad2b6,
        type: 3}
      propertyPath: m_LocalRotation.x
      value: 0
      objectReference: {fileID: 0}
    - target: {fileID: 4805714018815282955, guid: 7cd24369bff4b1d418d08ee6331ad2b6,
        type: 3}
      propertyPath: m_LocalRotation.y
      value: 0
      objectReference: {fileID: 0}
    - target: {fileID: 4805714018815282955, guid: 7cd24369bff4b1d418d08ee6331ad2b6,
        type: 3}
      propertyPath: m_LocalRotation.z
      value: 0
      objectReference: {fileID: 0}
    - target: {fileID: 4805714018815282955, guid: 7cd24369bff4b1d418d08ee6331ad2b6,
        type: 3}
      propertyPath: m_LocalEulerAnglesHint.x
      value: 0
      objectReference: {fileID: 0}
    - target: {fileID: 4805714018815282955, guid: 7cd24369bff4b1d418d08ee6331ad2b6,
        type: 3}
      propertyPath: m_LocalEulerAnglesHint.y
      value: 0
      objectReference: {fileID: 0}
    - target: {fileID: 4805714018815282955, guid: 7cd24369bff4b1d418d08ee6331ad2b6,
        type: 3}
      propertyPath: m_LocalEulerAnglesHint.z
      value: 0
      objectReference: {fileID: 0}
    m_RemovedComponents: []
  m_SourcePrefab: {fileID: 100100000, guid: 7cd24369bff4b1d418d08ee6331ad2b6, type: 3}
--- !u!1001 &5950953925258250786
PrefabInstance:
  m_ObjectHideFlags: 0
  serializedVersion: 2
  m_Modification:
    m_TransformParent: {fileID: 0}
    m_Modifications:
    - target: {fileID: 5950953926125724544, guid: f87a352cf6267564d8c60c43e93a5ffa,
        type: 3}
      propertyPath: m_RootOrder
      value: 3
      objectReference: {fileID: 0}
    - target: {fileID: 5950953926125724544, guid: f87a352cf6267564d8c60c43e93a5ffa,
        type: 3}
      propertyPath: m_LocalPosition.x
      value: 0
      objectReference: {fileID: 0}
    - target: {fileID: 5950953926125724544, guid: f87a352cf6267564d8c60c43e93a5ffa,
        type: 3}
      propertyPath: m_LocalPosition.y
      value: 0
      objectReference: {fileID: 0}
    - target: {fileID: 5950953926125724544, guid: f87a352cf6267564d8c60c43e93a5ffa,
        type: 3}
      propertyPath: m_LocalPosition.z
      value: 0
      objectReference: {fileID: 0}
    - target: {fileID: 5950953926125724544, guid: f87a352cf6267564d8c60c43e93a5ffa,
        type: 3}
      propertyPath: m_LocalRotation.w
      value: 1
      objectReference: {fileID: 0}
    - target: {fileID: 5950953926125724544, guid: f87a352cf6267564d8c60c43e93a5ffa,
        type: 3}
      propertyPath: m_LocalRotation.x
      value: 0
      objectReference: {fileID: 0}
    - target: {fileID: 5950953926125724544, guid: f87a352cf6267564d8c60c43e93a5ffa,
        type: 3}
      propertyPath: m_LocalRotation.y
      value: 0
      objectReference: {fileID: 0}
    - target: {fileID: 5950953926125724544, guid: f87a352cf6267564d8c60c43e93a5ffa,
        type: 3}
      propertyPath: m_LocalRotation.z
      value: 0
      objectReference: {fileID: 0}
    - target: {fileID: 5950953926125724544, guid: f87a352cf6267564d8c60c43e93a5ffa,
        type: 3}
      propertyPath: m_LocalEulerAnglesHint.x
      value: 0
      objectReference: {fileID: 0}
    - target: {fileID: 5950953926125724544, guid: f87a352cf6267564d8c60c43e93a5ffa,
        type: 3}
      propertyPath: m_LocalEulerAnglesHint.y
      value: 0
      objectReference: {fileID: 0}
    - target: {fileID: 5950953926125724544, guid: f87a352cf6267564d8c60c43e93a5ffa,
        type: 3}
      propertyPath: m_LocalEulerAnglesHint.z
      value: 0
      objectReference: {fileID: 0}
    - target: {fileID: 5950953926125724605, guid: f87a352cf6267564d8c60c43e93a5ffa,
        type: 3}
      propertyPath: m_Name
      value: EventSystem
      objectReference: {fileID: 0}
    m_RemovedComponents: []
  m_SourcePrefab: {fileID: 100100000, guid: f87a352cf6267564d8c60c43e93a5ffa, type: 3}
--- !u!1001 &6091644016160951340
PrefabInstance:
  m_ObjectHideFlags: 0
  serializedVersion: 2
  m_Modification:
    m_TransformParent: {fileID: 3217747591131057315}
    m_Modifications:
    - target: {fileID: 1385651408085620643, guid: 344be300e43d4c349918f3abc1998d0c,
        type: 3}
      propertyPath: m_Color.a
      value: 0.78431374
      objectReference: {fileID: 0}
    - target: {fileID: 1385651408085620643, guid: 344be300e43d4c349918f3abc1998d0c,
        type: 3}
      propertyPath: m_Color.b
      value: 0.9284022
      objectReference: {fileID: 0}
    - target: {fileID: 1385651408085620643, guid: 344be300e43d4c349918f3abc1998d0c,
        type: 3}
      propertyPath: m_Color.g
      value: 1
      objectReference: {fileID: 0}
    - target: {fileID: 1385651408085620643, guid: 344be300e43d4c349918f3abc1998d0c,
        type: 3}
      propertyPath: m_Color.r
      value: 0
      objectReference: {fileID: 0}
    - target: {fileID: 2772249573754597666, guid: 344be300e43d4c349918f3abc1998d0c,
        type: 3}
      propertyPath: m_LocalPosition.x
      value: 0
      objectReference: {fileID: 0}
    - target: {fileID: 2772249573754597666, guid: 344be300e43d4c349918f3abc1998d0c,
        type: 3}
      propertyPath: m_LocalPosition.y
      value: 0
      objectReference: {fileID: 0}
    - target: {fileID: 2772249573754597667, guid: 344be300e43d4c349918f3abc1998d0c,
        type: 3}
      propertyPath: m_ChildForceExpandWidth
      value: 1
      objectReference: {fileID: 0}
    - target: {fileID: 2772249573778793308, guid: 344be300e43d4c349918f3abc1998d0c,
        type: 3}
      propertyPath: m_ChildForceExpandWidth
      value: 1
      objectReference: {fileID: 0}
    - target: {fileID: 2772249575255743809, guid: 344be300e43d4c349918f3abc1998d0c,
        type: 3}
      propertyPath: m_Name
      value: Conversation
      objectReference: {fileID: 0}
    - target: {fileID: 2772249575255743814, guid: 344be300e43d4c349918f3abc1998d0c,
        type: 3}
      propertyPath: m_RootOrder
      value: 0
      objectReference: {fileID: 0}
    - target: {fileID: 2772249575255743814, guid: 344be300e43d4c349918f3abc1998d0c,
        type: 3}
      propertyPath: m_LocalPosition.x
      value: 0
      objectReference: {fileID: 0}
    - target: {fileID: 2772249575255743814, guid: 344be300e43d4c349918f3abc1998d0c,
        type: 3}
      propertyPath: m_LocalPosition.y
      value: 0
      objectReference: {fileID: 0}
    - target: {fileID: 2772249575255743814, guid: 344be300e43d4c349918f3abc1998d0c,
        type: 3}
      propertyPath: m_LocalEulerAnglesHint.x
      value: 0
      objectReference: {fileID: 0}
    - target: {fileID: 2772249575255743814, guid: 344be300e43d4c349918f3abc1998d0c,
        type: 3}
      propertyPath: m_LocalEulerAnglesHint.y
      value: 0
      objectReference: {fileID: 0}
    - target: {fileID: 2772249575255743814, guid: 344be300e43d4c349918f3abc1998d0c,
        type: 3}
      propertyPath: m_LocalEulerAnglesHint.z
      value: 0
      objectReference: {fileID: 0}
    - target: {fileID: 3195551575591061234, guid: 344be300e43d4c349918f3abc1998d0c,
        type: 3}
      propertyPath: m_ChildForceExpandWidth
      value: 1
      objectReference: {fileID: 0}
    - target: {fileID: 3460004543356108229, guid: 344be300e43d4c349918f3abc1998d0c,
        type: 3}
      propertyPath: m_AnchorMax.y
      value: 0
      objectReference: {fileID: 0}
    - target: {fileID: 3460004543356108229, guid: 344be300e43d4c349918f3abc1998d0c,
        type: 3}
      propertyPath: m_AnchorMin.y
      value: 0
      objectReference: {fileID: 0}
    - target: {fileID: 3460004543356108229, guid: 344be300e43d4c349918f3abc1998d0c,
        type: 3}
      propertyPath: m_SizeDelta.x
      value: 0
      objectReference: {fileID: 0}
    - target: {fileID: 3460004543356108229, guid: 344be300e43d4c349918f3abc1998d0c,
        type: 3}
      propertyPath: m_SizeDelta.y
      value: 0
      objectReference: {fileID: 0}
    - target: {fileID: 3460004543356108229, guid: 344be300e43d4c349918f3abc1998d0c,
        type: 3}
      propertyPath: m_AnchoredPosition.x
      value: 0
      objectReference: {fileID: 0}
    - target: {fileID: 3460004543356108229, guid: 344be300e43d4c349918f3abc1998d0c,
        type: 3}
      propertyPath: m_AnchoredPosition.y
      value: 0
      objectReference: {fileID: 0}
    - target: {fileID: 4391728748075109498, guid: 344be300e43d4c349918f3abc1998d0c,
        type: 3}
      propertyPath: m_AnchorMax.y
      value: 0
      objectReference: {fileID: 0}
    - target: {fileID: 4391728748075109498, guid: 344be300e43d4c349918f3abc1998d0c,
        type: 3}
      propertyPath: m_AnchorMin.y
      value: 0
      objectReference: {fileID: 0}
    - target: {fileID: 4391728748075109498, guid: 344be300e43d4c349918f3abc1998d0c,
        type: 3}
      propertyPath: m_SizeDelta.x
      value: 0
      objectReference: {fileID: 0}
    - target: {fileID: 4391728748075109498, guid: 344be300e43d4c349918f3abc1998d0c,
        type: 3}
      propertyPath: m_SizeDelta.y
      value: 0
      objectReference: {fileID: 0}
    - target: {fileID: 4391728748075109498, guid: 344be300e43d4c349918f3abc1998d0c,
        type: 3}
      propertyPath: m_AnchoredPosition.x
      value: 0
      objectReference: {fileID: 0}
    - target: {fileID: 4391728748075109498, guid: 344be300e43d4c349918f3abc1998d0c,
        type: 3}
      propertyPath: m_AnchoredPosition.y
      value: 0
      objectReference: {fileID: 0}
    - target: {fileID: 6433476164367654820, guid: 344be300e43d4c349918f3abc1998d0c,
        type: 3}
      propertyPath: m_AnchorMax.y
      value: 0
      objectReference: {fileID: 0}
    - target: {fileID: 6433476164367654820, guid: 344be300e43d4c349918f3abc1998d0c,
        type: 3}
      propertyPath: m_AnchorMin.y
      value: 0
      objectReference: {fileID: 0}
    - target: {fileID: 6433476164367654820, guid: 344be300e43d4c349918f3abc1998d0c,
        type: 3}
      propertyPath: m_SizeDelta.x
      value: 0
      objectReference: {fileID: 0}
    - target: {fileID: 6433476164367654820, guid: 344be300e43d4c349918f3abc1998d0c,
        type: 3}
      propertyPath: m_SizeDelta.y
      value: 0
      objectReference: {fileID: 0}
    - target: {fileID: 6433476164367654820, guid: 344be300e43d4c349918f3abc1998d0c,
        type: 3}
      propertyPath: m_AnchoredPosition.x
      value: 0
      objectReference: {fileID: 0}
    - target: {fileID: 6433476164367654820, guid: 344be300e43d4c349918f3abc1998d0c,
        type: 3}
      propertyPath: m_AnchoredPosition.y
      value: 0
      objectReference: {fileID: 0}
    - target: {fileID: 8703598945920119800, guid: 344be300e43d4c349918f3abc1998d0c,
        type: 3}
      propertyPath: m_IsActive
      value: 1
      objectReference: {fileID: 0}
    - target: {fileID: 8803385037077369177, guid: 344be300e43d4c349918f3abc1998d0c,
        type: 3}
      propertyPath: pack
      value: 
      objectReference: {fileID: 11400000, guid: 68d3384a43f6de99fb736611cb774a21,
        type: 2}
    - target: {fileID: 8803385037077369177, guid: 344be300e43d4c349918f3abc1998d0c,
        type: 3}
      propertyPath: script
      value: 
      objectReference: {fileID: 2811297602134710623, guid: b71c45c80e444504c99fb54edb55cf13,
        type: 3}
    - target: {fileID: 8803385037077369177, guid: 344be300e43d4c349918f3abc1998d0c,
        type: 3}
      propertyPath: nextScene
      value: General Credits
      objectReference: {fileID: 0}
    - target: {fileID: 9080769595944071656, guid: 344be300e43d4c349918f3abc1998d0c,
        type: 3}
      propertyPath: m_AnchorMax.y
      value: 0
      objectReference: {fileID: 0}
    - target: {fileID: 9080769595944071656, guid: 344be300e43d4c349918f3abc1998d0c,
        type: 3}
      propertyPath: m_AnchorMin.y
      value: 0
      objectReference: {fileID: 0}
    - target: {fileID: 9080769595944071656, guid: 344be300e43d4c349918f3abc1998d0c,
        type: 3}
      propertyPath: m_SizeDelta.x
      value: 0
      objectReference: {fileID: 0}
    - target: {fileID: 9080769595944071656, guid: 344be300e43d4c349918f3abc1998d0c,
        type: 3}
      propertyPath: m_SizeDelta.y
      value: 0
      objectReference: {fileID: 0}
    - target: {fileID: 9080769595944071656, guid: 344be300e43d4c349918f3abc1998d0c,
        type: 3}
      propertyPath: m_AnchoredPosition.x
      value: 0
      objectReference: {fileID: 0}
    - target: {fileID: 9080769595944071656, guid: 344be300e43d4c349918f3abc1998d0c,
        type: 3}
      propertyPath: m_AnchoredPosition.y
      value: 0
      objectReference: {fileID: 0}
    m_RemovedComponents: []
  m_SourcePrefab: {fileID: 100100000, guid: 344be300e43d4c349918f3abc1998d0c, type: 3}
--- !u!1001 &6234200152625678736
PrefabInstance:
  m_ObjectHideFlags: 0
  serializedVersion: 2
  m_Modification:
    m_TransformParent: {fileID: 0}
    m_Modifications:
    - target: {fileID: 6234200151932118241, guid: 0f88fe3eea565f84aa2c29c5eb29850c,
        type: 3}
      propertyPath: m_Name
      value: Main Camera
      objectReference: {fileID: 0}
    - target: {fileID: 6234200151932118244, guid: 0f88fe3eea565f84aa2c29c5eb29850c,
        type: 3}
      propertyPath: m_RootOrder
      value: 1
      objectReference: {fileID: 0}
    - target: {fileID: 6234200151932118244, guid: 0f88fe3eea565f84aa2c29c5eb29850c,
        type: 3}
      propertyPath: m_LocalPosition.x
      value: 0
      objectReference: {fileID: 0}
    - target: {fileID: 6234200151932118244, guid: 0f88fe3eea565f84aa2c29c5eb29850c,
        type: 3}
      propertyPath: m_LocalPosition.y
      value: 1
      objectReference: {fileID: 0}
    - target: {fileID: 6234200151932118244, guid: 0f88fe3eea565f84aa2c29c5eb29850c,
        type: 3}
      propertyPath: m_LocalPosition.z
      value: -10
      objectReference: {fileID: 0}
    - target: {fileID: 6234200151932118244, guid: 0f88fe3eea565f84aa2c29c5eb29850c,
        type: 3}
      propertyPath: m_LocalRotation.w
      value: 1
      objectReference: {fileID: 0}
    - target: {fileID: 6234200151932118244, guid: 0f88fe3eea565f84aa2c29c5eb29850c,
        type: 3}
      propertyPath: m_LocalRotation.x
      value: 0
      objectReference: {fileID: 0}
    - target: {fileID: 6234200151932118244, guid: 0f88fe3eea565f84aa2c29c5eb29850c,
        type: 3}
      propertyPath: m_LocalRotation.y
      value: 0
      objectReference: {fileID: 0}
    - target: {fileID: 6234200151932118244, guid: 0f88fe3eea565f84aa2c29c5eb29850c,
        type: 3}
      propertyPath: m_LocalRotation.z
      value: 0
      objectReference: {fileID: 0}
    - target: {fileID: 6234200151932118244, guid: 0f88fe3eea565f84aa2c29c5eb29850c,
        type: 3}
      propertyPath: m_LocalEulerAnglesHint.x
      value: 0
      objectReference: {fileID: 0}
    - target: {fileID: 6234200151932118244, guid: 0f88fe3eea565f84aa2c29c5eb29850c,
        type: 3}
      propertyPath: m_LocalEulerAnglesHint.y
      value: 0
      objectReference: {fileID: 0}
    - target: {fileID: 6234200151932118244, guid: 0f88fe3eea565f84aa2c29c5eb29850c,
        type: 3}
      propertyPath: m_LocalEulerAnglesHint.z
      value: 0
      objectReference: {fileID: 0}
    m_RemovedComponents: []
  m_SourcePrefab: {fileID: 100100000, guid: 0f88fe3eea565f84aa2c29c5eb29850c, type: 3}
--- !u!1001 &9156218816067088585
PrefabInstance:
  m_ObjectHideFlags: 0
  serializedVersion: 2
  m_Modification:
    m_TransformParent: {fileID: 0}
    m_Modifications:
    - target: {fileID: 5380000785723198804, guid: 65364467d38766c4da57d5ae58e8a4d9,
        type: 3}
      propertyPath: m_RootOrder
      value: 4
      objectReference: {fileID: 0}
    - target: {fileID: 5380000785723198804, guid: 65364467d38766c4da57d5ae58e8a4d9,
        type: 3}
      propertyPath: m_LocalPosition.x
      value: 0
      objectReference: {fileID: 0}
    - target: {fileID: 5380000785723198804, guid: 65364467d38766c4da57d5ae58e8a4d9,
        type: 3}
      propertyPath: m_LocalPosition.y
      value: 0
      objectReference: {fileID: 0}
    - target: {fileID: 5380000785723198804, guid: 65364467d38766c4da57d5ae58e8a4d9,
        type: 3}
      propertyPath: m_LocalPosition.z
      value: 0
      objectReference: {fileID: 0}
    - target: {fileID: 5380000785723198804, guid: 65364467d38766c4da57d5ae58e8a4d9,
        type: 3}
      propertyPath: m_LocalRotation.w
      value: 1
      objectReference: {fileID: 0}
    - target: {fileID: 5380000785723198804, guid: 65364467d38766c4da57d5ae58e8a4d9,
        type: 3}
      propertyPath: m_LocalRotation.x
      value: 0
      objectReference: {fileID: 0}
    - target: {fileID: 5380000785723198804, guid: 65364467d38766c4da57d5ae58e8a4d9,
        type: 3}
      propertyPath: m_LocalRotation.y
      value: 0
      objectReference: {fileID: 0}
    - target: {fileID: 5380000785723198804, guid: 65364467d38766c4da57d5ae58e8a4d9,
        type: 3}
      propertyPath: m_LocalRotation.z
      value: 0
      objectReference: {fileID: 0}
    - target: {fileID: 5380000785723198804, guid: 65364467d38766c4da57d5ae58e8a4d9,
        type: 3}
      propertyPath: m_LocalEulerAnglesHint.x
      value: 0
      objectReference: {fileID: 0}
    - target: {fileID: 5380000785723198804, guid: 65364467d38766c4da57d5ae58e8a4d9,
        type: 3}
      propertyPath: m_LocalEulerAnglesHint.y
      value: 0
      objectReference: {fileID: 0}
    - target: {fileID: 5380000785723198804, guid: 65364467d38766c4da57d5ae58e8a4d9,
        type: 3}
      propertyPath: m_LocalEulerAnglesHint.z
      value: 0
      objectReference: {fileID: 0}
    - target: {fileID: 6847439682861971968, guid: 65364467d38766c4da57d5ae58e8a4d9,
        type: 3}
      propertyPath: m_Name
      value: Phone Sounds
      objectReference: {fileID: 0}
    m_RemovedComponents: []
  m_SourcePrefab: {fileID: 100100000, guid: 65364467d38766c4da57d5ae58e8a4d9, type: 3}
