%YAML 1.1
%TAG !u! tag:unity3d.com,2011:
--- !u!114 &11400000
MonoBehaviour:
  m_ObjectHideFlags: 0
  m_CorrespondingSourceObject: {fileID: 0}
  m_PrefabInstance: {fileID: 0}
  m_PrefabAsset: {fileID: 0}
  m_GameObject: {fileID: 0}
  m_Enabled: 1
  m_EditorHideFlags: 0
  m_Script: {fileID: 11500000, guid: 79a42f0b2cd64d70ba225e5283b75706, type: 3}
  m_Name: Shopping 4
  m_EditorClassIdentifier: 
  script: {fileID: 2811297602134710623, guid: ecf6cade0045de141b15b5cb3ad85cb1, type: 3}
  clips:
  - {fileID: 8300000, guid: 9a65281c58a5a9ff3881d334b6223a77, type: 3}
  - {fileID: 8300000, guid: d9e918486b630d7a99b657c0e499c686, type: 3}
  - {fileID: 8300000, guid: 8a79190ea8862d6caaafc5166e9b6fd6, type: 3}
  - {fileID: 8300000, guid: 72f46b103a1e5745daecc72ddc46d9a0, type: 3}
  - {fileID: 8300000, guid: ecdd1e9b8ab42624faeed5675a757079, type: 3}
  - {fileID: 8300000, guid: 627efb02297d0d071b76169e74fb6744, type: 3}
  - {fileID: 8300000, guid: 836ef2b988ed5bd60a06b0f814a767e7, type: 3}
  - {fileID: 8300000, guid: 19d4c8a96d18e0957b2e2dd8e752bb04, type: 3}
  - {fileID: 8300000, guid: d3803a8bece2e859293a15f8397f8561, type: 3}
  - {fileID: 8300000, guid: 1aa9e9be5395f5bd8979b78cc6ff2871, type: 3}
  - {fileID: 8300000, guid: fa426d8017241692297d2bd37d63bcd3, type: 3}
  - {fileID: 8300000, guid: a30d6048738830a07ac8c7f2b60ef3af, type: 3}
  - {fileID: 8300000, guid: ce9f42e93b31b2627865bfff06f61429, type: 3}
  - {fileID: 8300000, guid: d5f031b27073bd5559e13b07c054019e, type: 3}
  - {fileID: 8300000, guid: 496daca55c1b526d2ae5e8e3a544dd55, type: 3}
  - {fileID: 8300000, guid: 3064fa95a6f7ff2a99e58ceeec828815, type: 3}
  - {fileID: 8300000, guid: 2a3e43271a6c96b238b6bf78aede5279, type: 3}
  - {fileID: 8300000, guid: f5529d24b6fb0e727af6b1b735799e3c, type: 3}
  - {fileID: 8300000, guid: ca1a198423458aa679e686ac64b24b54, type: 3}
  - {fileID: 8300000, guid: d9e7de08673acc8aeaa7f51289b8555c, type: 3}
  - {fileID: 8300000, guid: 6187a0840130e5e5881a8859a2731b09, type: 3}
  - {fileID: 8300000, guid: 2e7206b8d13f88525849ad5f3f5ebcce, type: 3}
  - {fileID: 8300000, guid: fb09e166a779c640e815735266cc0669, type: 3}
  - {fileID: 8300000, guid: d7d29640dcdbed469bd2cfbfcddcf6b6, type: 3}
  - {fileID: 8300000, guid: 907002625d6e187b9b08e0da9a9ba18b, type: 3}
